<svg xmlns="http://www.w3.org/2000/svg" xmlns:xlink="http://www.w3.org/1999/xlink" width="27" height="17" viewBox="0 0 27 17">
  <image id="Vector_Smart_Object_copy_7" data-name="Vector Smart Object copy 7" width="27" height="17" xlink:href="data:img/png;base64,iVBORw0KGgoAAAANSUhEUgAAABsAAAARCAYAAAAsT9czAAAAoUlEQVQ4jb3VsQlCMRRG4U9ECysbO0tbl3MBF9DeAXQBB7ARSysLwUJsrJzgVcqDGxAeWiU5VSCXHJLc/PGHEY64/y7JwxAHvHEqKRpgH6ILxp2KTPSxC9ENk1KiHjYhemDaqcjIKkRPzEqKliF6Yd6ZzUR7dAusY7ktzoVc11bWRKuXpqm6szSocmffVOtGtd+ZmgmSqJaNiWqpn8j7n+EDdTMqyme1B0sAAAAASUVORK5CYII="/>
</svg>
