<svg xmlns="http://www.w3.org/2000/svg" xmlns:xlink="http://www.w3.org/1999/xlink" width="27" height="17" viewBox="0 0 27 17">
  <image id="Vector_Smart_Object_copy_9" data-name="Vector Smart Object copy 9" width="27" height="17" xlink:href="data:img/png;base64,iVBORw0KGgoAAAANSUhEUgAAABsAAAARCAYAAAAsT9czAAAAoUlEQVQ4jb3VsQlCMRRG4U9EBSub11naWFg5hEu4hQO4wBvABVzAAWzECewsxMbKBcRGEW4XnlWSUwXuJYdLkj8ycsMJ45ybdnHGB0cMO3qyMcElhAcMSgsbXEO4Rz/pyMwU9xDu0CstnOERwjapFmCBZwi3YsQV5oWES6xjvfnJXhglbfl5V50sqWYkObNSVLuN1d5ZtQSpmo1VU///f4Yv630nISDnr8cAAAAASUVORK5CYII="/>
</svg>
